﻿  Lab_05_5.cpp
C:\Users\DUXA\Desktop\АП\gitLab\Lab_05_5\Lab_05_5\Lab_05_5.cpp(11,17): warning C4244: '=': conversion from 'double' to 'int', possible loss of data
C:\Users\DUXA\Desktop\АП\gitLab\Lab_05_5\Lab_05_5\Lab_05_5.cpp(15,17): warning C4244: '=': conversion from 'double' to 'int', possible loss of data
C:\Users\DUXA\Desktop\АП\gitLab\Lab_05_5\Lab_05_5\Lab_05_5.cpp(17,22): warning C4244: 'initializing': conversion from 'double' to 'int', possible loss of data
C:\Users\DUXA\Desktop\АП\gitLab\Lab_05_5\Lab_05_5\Lab_05_5.cpp(19,22): warning C4244: 'initializing': conversion from 'double' to 'int', possible loss of data
C:\Users\DUXA\Desktop\АП\gitLab\Lab_05_5\Lab_05_5\Lab_05_5.cpp(26,23): warning C4101: 's': unreferenced local variable
C:\Users\DUXA\Desktop\АП\gitLab\Lab_05_5\Lab_05_5\Lab_05_5.cpp(26,20): warning C4101: 'r': unreferenced local variable
  Lab_05_5.vcxproj -> C:\Users\DUXA\Desktop\АП\gitLab\Lab_05_5\x64\Debug\Lab_05_5.exe
