^C:\USERS\DUXA\DESKTOP\АП\GITLAB\LAB_06_2(REC)\LAB_06_2(REC)\X64\DEBUG\LAB_06_1(REC).OBJ
C:\USERS\DUXA\DESKTOP\АП\GITLAB\LAB_06_2(REC)\X64\DEBUG\LAB_06_1(REC).EXE
C:\USERS\DUXA\DESKTOP\АП\GITLAB\LAB_06_2(REC)\LAB_06_2(REC)\X64\DEBUG\LAB_06_1(REC).ILK
C:\USERS\DUXA\DESKTOP\АП\GITLAB\LAB_06_2(REC)\X64\DEBUG\LAB_06_1(REC).PDB
