^C:\USERS\DUXA\DESKTOP\АП\GITLAB\LAB_04_3\LAB_04_3\X64\DEBUG\LAB_04_3.OBJ
C:\USERS\DUXA\DESKTOP\АП\GITLAB\LAB_04_3\X64\DEBUG\LAB_04_3.EXE
C:\USERS\DUXA\DESKTOP\АП\GITLAB\LAB_04_3\LAB_04_3\X64\DEBUG\LAB_04_3.ILK
C:\USERS\DUXA\DESKTOP\АП\GITLAB\LAB_04_3\X64\DEBUG\LAB_04_3.PDB
