^C:\USERS\DUXA\DESKTOP\АП\GITLAB\LAB_04_1\LAB_04_1\LAB_04-1CPP.CPP
C:\USERS\DUXA\DESKTOP\АП\GITLAB\LAB_04_1\LAB_04_1\X64\DEBUG\VC143.PDB
C:\USERS\DUXA\DESKTOP\АП\GITLAB\LAB_04_1\LAB_04_1\X64\DEBUG\VC143.IDB
C:\USERS\DUXA\DESKTOP\АП\GITLAB\LAB_04_1\LAB_04_1\X64\DEBUG\LAB_04-1CPP.OBJ
