^C:\USERS\DUXA\DESKTOP\АП\GITLAB\LAB_04_1\LAB_04_1\X64\DEBUG\LAB_04-1CPP.OBJ
C:\USERS\DUXA\DESKTOP\АП\GITLAB\LAB_04_1\LAB_04_1\X64\DEBUG\LAB_04_1.ILK
C:\USERS\DUXA\DESKTOP\АП\GITLAB\LAB_04_1\X64\DEBUG\LAB_04_1.EXE
C:\USERS\DUXA\DESKTOP\АП\GITLAB\LAB_04_1\X64\DEBUG\LAB_04_1.PDB
