^C:\USERS\DUXA\DESKTOP\АП\GITLAB\LAB_03_3\LAB_03_3\LAB_03_3\LAB_03_3.CPP
C:\USERS\DUXA\DESKTOP\АП\GITLAB\LAB_03_3\LAB_03_3\LAB_03_3\X64\DEBUG\VC143.PDB
C:\USERS\DUXA\DESKTOP\АП\GITLAB\LAB_03_3\LAB_03_3\LAB_03_3\X64\DEBUG\VC143.IDB
C:\USERS\DUXA\DESKTOP\АП\GITLAB\LAB_03_3\LAB_03_3\LAB_03_3\X64\DEBUG\LAB_03_3.OBJ
