^C:\USERS\DUXA\DESKTOP\АП\GITLAB\LAB_06_2(REC)\LAB_06_2(REC)\LAB_06_2(REC).CPP
C:\USERS\DUXA\DESKTOP\АП\GITLAB\LAB_06_2(REC)\LAB_06_2(REC)\X64\DEBUG\VC143.PDB
C:\USERS\DUXA\DESKTOP\АП\GITLAB\LAB_06_2(REC)\LAB_06_2(REC)\X64\DEBUG\VC143.IDB
C:\USERS\DUXA\DESKTOP\АП\GITLAB\LAB_06_2(REC)\LAB_06_2(REC)\X64\DEBUG\LAB_06_2(REC).OBJ
