^C:\USERS\DUXA\DESKTOP\АП\GITLAB\LAB_04_4\LAB_04_4\LAB_04_4.CPP
C:\USERS\DUXA\DESKTOP\АП\GITLAB\LAB_04_4\LAB_04_4\X64\DEBUG\VC143.PDB
C:\USERS\DUXA\DESKTOP\АП\GITLAB\LAB_04_4\LAB_04_4\X64\DEBUG\VC143.IDB
C:\USERS\DUXA\DESKTOP\АП\GITLAB\LAB_04_4\LAB_04_4\X64\DEBUG\LAB_04_4.OBJ
